1 7
13 10
38 7
40 17
43 5
49 6
50 9
51 5
54 31
59 6
70 7
82 18
86 8
89 10
90 12
96 11
97 10
99 5
100 13
103 7
104 20
106 27
108 12
110 5
113 9
115 24
116 9
130 9
133 10
137 7
141 10
142 5
145 5
150 6
167 6
172 5
173 35
180 10
185 5
190 10
192 11
195 5
200 16
207 61
208 17
224 8
229 42
230 7
232 6
234 5
242 22
248 16
257 47
259 9
260 7
262 9
265 8
268 5
272 21
275 5
276 7
283 15
284 16
290 9
295 5
301 19
309 64
317 6
332 6
358 32
361 7
363 25
373 6
384 9
401 5
415 9
426 22
427 74
431 12
436 7
462 5
469 8
470 5
472 8
478 5
486 5
490 10
493 5
495 6
500 108
501 39
502 10
503 10
518 6
520 5
524 9
527 10
545 58
546 40
551 15
553 6
555 22
558 9
559 8
560 10
562 39
566 46
567 18
574 7
576 20
578 23
580 18
581 6
584 12
586 15
590 15
593 5
596 6
600 21
601 6
605 34
606 13
619 28
623 7
626 6
629 7
640 39
641 13
642 29
677 33
678 5
682 7
688 8
699 7
708 6
710 6
716 9
718 7
721 6
724 70
725 135
729 104
737 25
741 5
746 80
757 7
762 16
772 5
779 39
780 10
782 5
788 28
801 13
802 58
809 6
817 34
824 16
825 5
832 14
842 12
847 14
855 5
857 42
874 23
876 8
880 10
897 9
898 13
901 6
908 31
911 19
915 33
923 13
928 7
930 6
931 8
935 6
938 30
944 31
950 8
952 6
959 10
966 13
967 26
975 23
976 6
984 10
987 13
994 8
996 15
1005 8
1007 19
1012 8
1017 6
1029 16
1040 11
1044 19
1045 38
1051 16
1052 11
1058 9
1060 36
1062 7
1068 10
1071 6
1076 5
1087 6
1093 11
1095 11
1112 22
1115 126
1119 27
1120 17
1124 7
1128 7
1130 20
1141 12
1151 14
1152 34
1153 6
1163 8
1172 20
1173 7
1176 7
1182 5
1186 15
1189 7
1201 19
1202 12
1227 8
1231 5
1236 7
1238 5
1260 9
1282 6
1287 34
1288 19
1296 5
1299 19
1307 14
1308 77
1309 6
1310 71
1332 78
1336 95
1337 22
1342 8
1347 15
1349 21
1350 10
1352 12
1354 10
1359 9
1361 271
1375 45
1406 36
1411 27
1415 12
1419 7
1421 5
1428 9
1437 7
1440 27
1441 28
1442 7
1454 5
1456 5
1459 5
1460 6
1477 8
1478 5
1494 6
1499 9
1516 7
1518 20
1521 5
1522 24
1523 11
1528 5
1531 19
1532 5
1536 7
1542 23
1548 8
1549 6
1550 7
1551 25
1557 25
1559 69
1572 56
1573 9
1576 10
1577 7
1583 8
1584 6
1590 28
1592 11
1594 5
1598 5
1599 15
1602 27
1606 10
1607 12
1608 9
1620 8
1621 24
1632 12
1640 6
1641 12
1642 71
1643 8
1644 19
1645 16
1647 23
1651 5
1653 17
1656 6
1664 18
1670 6
1673 17
1691 19
1692 59
1693 20
1695 28
1696 28
1697 11
1698 57
1701 40
1702 55
1706 10
1709 80
1711 15
1722 15
1729 9
1741 5
1742 7
1745 5
1748 8
1755 8
1758 23
1768 11
1774 7
1779 7
1780 5
1783 14
1787 26
1791 5
1793 16
1800 37
1822 9
1823 35
1828 9
1829 18
1830 30
1843 6
1845 6
1847 6
1852 6
1859 6
1874 19
1878 14
1881 10
1885 16
1891 6
1894 26
1897 7
1899 9
1916 8
1917 7
1925 8
1937 8
1940 6
1941 9
1948 10
1963 6
1971 6
1982 15
1997 18
1998 22
2002 11
2003 8
2004 14
2012 10
2015 12
2018 6
2025 9
2064 73
2065 29
2066 9
2079 5
2081 8
2082 5
2089 13
2093 13
2096 6
2097 8
2101 26
2103 16
2107 5
2112 14
2113 9
2118 15
2119 50
2123 12
2124 8
2125 8
2131 6
2133 6
2140 26
2142 10
2146 8
2147 6
2151 13
2152 8
2157 5
2168 6
2170 8
2172 17
2182 11
2183 6
2189 81
2191 28
2198 15
2199 5
2204 6
2206 14
2207 17
2215 18
2217 7
2218 56
2227 7
2229 10
2233 9
2247 14
2248 5
2252 31
2257 12
2259 5
2263 9
2264 6
2275 7
2276 7
2278 21
2280 15
2281 5
2284 30
2294 5
2297 9
2298 20
2300 23
2315 7
2316 12
2331 17
2333 11
2336 5
2341 8
2345 6
2349 12
2365 9
2366 7
2371 8
2383 15
2396 5
2400 5
2420 45
2444 5
2478 6
2479 6
2491 5
2496 11
2497 6
2517 5
2518 10
2520 5
2523 8
2535 9
2538 16
2543 8
2545 48
2549 8
2555 20
2557 15
2558 52
2559 11
2560 46
2563 33
2565 24
2566 8
2569 15
2570 153
2571 8
2573 8
2574 34
2575 5
2578 14
2579 17
2580 10
2588 5
2590 83
2591 5
2599 6
2604 7
2605 65
2606 6
2610 9
2611 5
2630 10
2641 27
2653 5
2656 59
2664 8
2672 7
2683 26
2686 13
2696 40
2698 6
2700 10
2706 37
2707 10
2709 7
2717 26
2732 5
2739 8
2742 10
2748 32
2750 5
2753 12
2756 30
2764 15
2773 8
2780 30
2781 7
2782 21
2783 25
2784 76
2786 11
2793 10
2798 7
2801 8
2815 17
2824 6
2830 10
2831 17
2849 18
2854 18
2856 7
2860 7
2862 23
2868 9
2871 15
2872 43
2883 6
2887 15
2894 10
2910 14
2921 11
2926 8
2927 130
2931 10
2939 12
2956 69
2957 18
2969 10
2971 16
2978 12
2982 8
2986 28
3005 42
3007 15
3008 6
3019 8
3033 6
3034 13
3038 8
3039 11
3067 14
3068 21
3111 8
3120 31
3121 18
3131 6
3140 8
3141 10
3153 17
3154 28
3160 17
3162 8
3175 7
3177 13
3184 7
3191 9
3196 7
3199 6
3201 12
3205 6
3207 8
3214 8
3220 12
3221 10
3228 10
3229 10
3250 7
3259 45
3263 22
3264 12
3269 29
3274 6
3278 26
3287 6
3293 10
3296 6
3300 9
3301 14
3303 127
3313 21
3314 13
3320 145
3328 10
3330 19
3331 6
3344 8
3348 10
3349 15
3352 25
3356 23
3357 11
3361 44
3362 25
3363 8
3365 6
3366 19
3368 7
3369 7
3389 13
3392 12
3408 31
3413 8
3420 14
3425 6
3428 6
3432 9
3433 16
3436 21
3438 30
3448 13
3449 6
3455 7
3459 9
3463 167
3470 13
3471 8
3474 10
3476 10
3479 31
3480 22
3481 9
3486 34
3491 23
3497 9
3499 34
3505 8
3506 17
3507 18
3522 12
3524 7
3527 12
3529 9
3531 11
3535 19
3538 9
3541 6
3552 22
3557 7
3560 7
3563 9
3566 21
3567 40
3568 49
3569 17
3577 11
3580 7
3582 7
3586 13
3592 9
3605 16
3606 23
3612 7
3614 17
3627 20
3629 12
3630 7
3631 15
3637 6
3643 10
3647 6
3649 6
3655 10
3659 27
3669 17
3672 6
3674 10
3678 21
3681 19
3683 10
3690 23
3702 32
3712 27
3721 148
3724 60
3725 28
3737 20
3740 112
3741 8
3745 25
3777 50
3778 44
3780 7
3781 7
3786 13
3795 9
3811 13
3812 6
3815 19
3816 26
3828 6
3841 23
3845 15
3850 16
3853 6
3854 7
3858 8
3862 15
3863 21
3871 6
3879 16
3887 47
3888 6
3889 51
3892 35
3893 35
3895 16
3896 6
3897 7
3912 15
3918 28
3919 8
3920 33
3921 7
3924 7
3930 6
3942 10
3947 18
3962 20
3976 6
3977 39
3979 12
3983 357
3984 9
3988 8
3989 6
4001 10
4005 16
4007 27
4012 34
4013 11
4014 141
4015 29
4022 78
4023 50
4025 48
4026 9
4027 99
4028 10
4033 16
4038 22
4039 9
4074 11
4076 6
4078 46
4079 25
4098 6
4131 17
4146 11
4149 23
4151 33
4153 9
4159 67
4168 7
4173 16
4185 16
4187 8
4189 20
4192 34
4199 28
4204 9
4226 6
4228 8
4232 14
4236 9
4238 9
4239 13
4244 21
4257 33
4265 29
4273 10
4278 6
4288 11
4297 9
4303 215
4304 31
4306 8
4312 7
4328 41
4331 6
4336 13
4340 10
4350 11
4354 69
4355 49
4358 7
4361 6
4363 7
4370 63
4371 6
4374 18
4376 113
4379 18
4383 24
4385 9
4386 11
4387 6
4393 8
4396 13
4397 19
4398 7
4399 7
4402 7
4405 16
4417 10
4418 11
4424 17
4426 10
4432 26
4435 6
4440 6
4445 80
4447 43
4448 74
4460 7
4474 6
4475 6
4478 40
4487 47
4497 29
4500 6
4509 14
4513 10
4525 21
4526 42
4533 14
4535 11
4538 6
4544 21
4550 9
4569 23
4570 8
4572 17
4579 9
4580 6
4586 8
4588 12
4589 16
4599 121
4600 57
4601 21
4606 111
4607 38
4611 9
4619 8
4620 32
4621 11
4623 32
4628 25
4635 18
4637 20
4638 38
4641 21
4654 15
4656 18
4658 17
4659 6
4675 27
4678 83
4690 65
4692 16
4719 11
4721 6
4724 11
4732 53
4736 7
4750 23
4752 30
4753 6
4756 40
4757 21
4762 44
4781 17
4784 10
4787 8
4794 13
4806 6
4810 7
4835 32
4836 6
4837 7
4846 8
4850 30
4851 7
4858 6
4874 18
4876 107
4879 46
4880 11
4881 13
4913 70
4915 67
4917 11
4922 17
4925 120
4930 9
4937 6
4940 17
4943 36
4963 17
4967 28
4968 55
4970 13
4973 56
4980 24
4982 54
5010 6
5013 10
5017 16
5018 11
5050 77
5056 6
5057 36
5062 9
5065 30
5066 6
5072 12
5080 10
5083 10
5084 10
5085 10
5087 8
5089 7
5092 6
5093 14
5094 7
5098 509
5099 45
5102 6
5119 13
5120 7
5122 6
5128 26
5130 6
5133 56
5135 24
5139 14
5140 14
5162 8
5164 65
5165 19
5176 30
5178 10
5183 15
5184 26
5185 8
5187 7
5200 21
5202 65
5204 7
5206 57
5241 45
5243 6
5275 17
5278 6
5279 26
5286 7
5298 6
5299 20
5301 6
5305 33
5307 11
5313 35
5315 6
5317 8
5335 19
5336 8
5339 15
5342 25
5345 8
5350 6
5352 13
5353 30
5354 7
5356 8
5366 11
5373 6
5392 14
5393 48
5396 6
5403 6
5416 23
5422 161
5430 14
5432 21
5447 6
5464 124
5468 7
5471 25
5472 24
5477 6
5479 45
5481 22
5492 9
5505 13
5510 9
5515 20
5519 8
5552 18
5553 9
5554 10
5559 18
5561 21
5564 6
5567 25
5570 7
5583 62
5602 55
5607 9
5610 46
5616 33
5621 37
5623 6
5628 11
5629 31
5633 6
5634 13
5635 8
5638 7
5654 6
5657 16
5659 6
5660 6
5673 10
5674 9
5678 66
5687 16
5688 14
5696 51
5698 11
5699 24
5703 8
5704 28
5708 10
5724 11
5725 10
5730 7
5747 11
5748 28
5751 11
5761 11
5773 109
5774 35
5775 41
5778 20
5793 7
5806 10
5809 16
5813 14
5823 7
5824 6
5830 22
5831 9
5832 10
5833 60
5836 16
5837 8
5838 9
5869 6
5879 8
5883 30
5884 9
5889 6
5894 26
5895 16
5900 7
5905 9
5909 10
5929 13
5937 6
5942 7
5953 14
5963 21
5964 58
5965 39
5967 11
5969 9
5976 9
5982 52
5983 17
5984 37
5986 16
5987 56
5988 22
5999 6
6000 6
6002 12
6006 6
6011 14
6016 12
6028 10
6032 10
6041 15
6054 32
6055 14
6056 17
6067 7
6072 9
6082 26
6083 23
6084 12
6085 66
6092 45
6094 8
6095 7
6098 33
6101 21
6133 21
6135 9
6144 12
6155 26
6156 15
6157 13
6161 10
6163 11
6167 6
6170 6
6175 38
6177 6
6186 8
6201 8
6206 38
6210 6
6213 13
6214 57
6215 6
6226 6
6227 9
6228 27
6229 6
6230 6
6253 26
6258 7
6260 8
6262 7
6269 14
6270 86
6271 28
6277 10
6293 15
6303 6
6304 31
6318 13
6325 10
6328 7
6338 8
6346 12
6370 17
6389 18
6401 21
6413 29
6418 6
6422 21
6424 6
6437 14
6439 12
6444 6
6446 9
6464 75
6466 7
6467 12
6481 9
6483 7
6493 18
6506 18
6553 8
6559 32
6573 11
6576 38
6582 25
6583 17
6584 6
6596 6
6618 11
6620 7
6621 82
6622 14
6623 9
6630 7
6641 36
6647 14
6648 19
6649 6
6660 17
6661 12
6664 10
6669 14
6673 6
6676 6
6679 6
6704 15
6712 20
6725 7
6726 13
6737 7
6738 13
6739 17
6743 22
6754 10
6766 17
6805 23
6807 25
6810 14
6821 15
6823 20
6828 12
6833 12
6858 13
6860 50
6861 46
6864 18
6867 10
6890 6
6891 12
6900 12
6918 6
6919 23
6923 102
6929 9
6932 33
6943 12
6963 19
6974 17
6976 84
6977 22
6984 12
6999 6
7002 8
7006 9
7024 7
7027 38
7038 33
7039 53
7058 6
7076 7
7080 12
7081 6
7093 6
7107 13
7108 11
7109 15
7123 6
7129 6
7137 86
7139 6
7155 19
7162 9
7164 9
7165 25
7166 7
7171 6
7173 11
7177 21
7188 14
7192 38
7199 23
7211 28
7212 19
7220 71
7222 6
7223 7
7228 44
7235 6
7245 6
7258 6
7262 8
7263 16
7270 8
7271 9
7281 22
7282 9
7293 16
7294 51
7299 6
7301 6
7302 16
7316 10
7324 9
7325 11
7328 8
7337 62
7340 26
7365 10
7366 19
7367 21
7378 24
7380 10
7382 8
7383 7
7385 9
7399 12
7400 6
7401 7
7410 23
7417 11
7422 35
7431 7
7444 10
7456 6
7461 36
7462 11
7479 27
7482 30
7483 26
7484 13
7488 32
7489 34
7505 45
7509 13
7510 12
7512 16
7515 19
7519 13
7532 6
7553 6
7562 8
7566 12
7567 47
7569 16
7573 15
7577 9
7596 6
7607 59
7611 9
7614 9
7619 41
7620 47
7622 31
7623 8
7632 8
7635 6
7639 15
7648 11
7650 52
7663 26
7696 9
7709 21
7713 189
7716 10
7722 40
7724 9
7726 8
7729 7
7734 9
7736 7
7753 43
7754 23
7758 11
7760 23
7761 10
7762 7
7770 8
7774 9
7803 13
7805 18
7806 12
7813 8
7816 28
7872 39
7881 10
7911 9
7913 11
7917 14
7918 65
7920 9
7924 8
7927 9
7932 15
7933 32
7934 20
7938 9
7939 34
7944 28
7945 7
7948 9
7949 6
7951 9
7958 6
7960 14
7963 28
7970 8
7983 6
7993 7
8018 20
8024 9
8025 7
8039 8
8051 35
8052 8
8058 7
8070 8
8071 20
8082 12
8087 14
8088 61
8091 27
8097 13
8116 14
8126 81
8127 234
8128 56
8138 21
8139 14
8166 20
8175 6
8181 7
8196 12
8220 11
8221 12
8228 42
8230 42
8235 8
8236 12
8237 47
8240 40
8241 10
8243 10
8244 10
8248 67
8249 21
8261 6
8289 19
8290 15
8316 14
8317 11
8323 10
8329 9
8332 40
8333 18
8335 14
8344 9
8351 7
8360 13
8421 38
8444 57
8475 17
8476 7
8484 6
8492 21
8509 22
8519 29
8522 8
8526 10
8532 8
8538 13
8539 10
8540 18
8542 47
8543 12
8545 11
8547 9
8549 52
8550 32
8551 36
8556 24
8557 9
8559 12
8561 109
8562 40
8564 34
8565 43
8566 14
8568 10
8572 17
8576 12
8577 12
8578 42
8579 20
8585 25
8590 10
8591 9
8614 10
8630 21
8642 6
8657 26
8674 44
8675 6
8689 12
8690 9
8704 18
8713 22
8714 27
8719 6
8720 6
8730 18
8731 11
8732 11
8743 13
8749 7
8753 19
8768 7
8792 6
8829 9
8830 14
8834 6
8853 9
8873 14
8877 9
8878 39
8884 11
8896 22
8899 168
8900 6
8901 10
8902 20
8904 12
8907 15
8939 6
8942 15
8945 30
8968 19
8969 9
8974 6
8987 7
8994 8
9000 15
9016 7
9022 117
9023 9
9024 7
9036 116
9037 97
9066 8
9088 8
9089 7
9107 24
9115 7
9118 47
9120 14
9134 9
9146 29
9147 6
9149 185
9151 41
9163 8
9164 26
9170 296
9178 16
9179 9
9185 6
9188 31
9217 23
9254 46
9257 7
9299 23
9300 6
9309 34
9313 12
9317 6
9318 12
9321 6
9323 8
9361 33
9364 6
9375 6
9391 13
9395 37
9397 9
9398 33
9402 18
9416 10
9417 25
9436 41
9437 49
9438 56
9439 12
9467 20
9469 18
9473 6
9475 7
9481 10
9482 31
9489 10
9500 25
9503 20
9504 6
9507 10
9509 6
9517 24
9519 15
9541 14
9543 44
9562 9
9567 6
9600 25
9609 17
9610 13
9613 53
9614 8
9620 11
9625 7
9636 15
9638 8
9653 7
9655 63
9660 8
9666 51
9669 26
9671 17
9686 6
9698 12
9707 13
9709 8
9717 10
9732 9
9734 12
9737 33
9740 13
9746 15
9747 23
9758 6
9780 12
9783 7
9786 7
9804 8
9805 18
9818 8
9827 39
9828 6
9853 13
9854 32
9869 34
9870 6
9873 8
9878 14
9893 11
9897 16
9903 13
9906 42
9918 11
9921 18
9922 9
9926 15
9934 17
9935 17
9947 38
9948 83
9956 7
9961 6
9964 7
9969 12
9970 10
9974 73
9979 12
9990 28
9991 9
10016 8
10026 16
10029 53
10032 13
10039 6
10049 9
10054 6
10058 6
10063 11
10067 32
10072 131
10074 16
10075 39
10096 7
10105 6
10108 7
10125 7
10132 6
10134 86
10137 6
10150 6
10153 9
10155 6
10156 23
10165 18
10168 9
10170 45
10189 20
10190 55
10191 155
10192 24
10194 6
10195 31
10196 32
10207 21
10208 15
10209 14
10210 16
10212 6
10213 6
10216 54
10220 31
10221 26
10222 7
10223 7
10225 14
10233 8
10236 6
10256 7
10257 79
10259 40
10285 8
10292 6
10302 10
10303 14
10304 11
10317 78
10318 129
10319 24
10323 8
10324 18
10326 11
10329 16
10338 9
10340 40
10341 7
10350 6
10358 7
10362 6
10375 8
10377 30
10379 8
10389 71
10391 12
10396 20
10398 54
10406 10
10407 7
10408 67
10409 7
10411 18
10412 39
10414 15
10417 16
10427 34
10433 9
10436 12
10438 6
10447 37
10449 24
10454 7
10455 14
10456 8
10460 6
10477 12
10482 9
10488 9
10489 8
10494 16
10496 37
10509 9
10513 9
10514 50
10516 10
10517 16
10518 8
10526 26
10529 52
10534 84
10537 17
10538 9
10543 66
10553 6
10554 14
10559 75
10562 64
10564 44
10565 15
10571 49
10572 25
10573 12
10579 20
10581 11
10586 16
10587 9
10605 6
10615 72
10617 10
10620 6
10621 9
10644 59
10647 7
10658 36
10664 16
10666 22
10667 12
10668 7
10671 9
10675 14
10676 18
10680 13
10682 12
10688 113
10691 46
10708 10
10715 6
10729 10
10730 7
10732 10
10745 20
10746 13
10748 11
10749 7
10756 12
10763 10
10769 7
10774 20
10781 48
10789 7
10796 27
10813 11
10824 27
10825 6
10828 17
10831 76
10832 6
10833 10
10838 14
10841 14
10844 9
10849 7
10854 28
10855 7
10856 12
10859 7
10880 11
10884 10
10897 6
10898 23
10903 12
10904 78
10908 14
10914 16
10916 31
10923 41
10924 9
10927 6
10939 6
10949 26
10950 14
10956 12
10957 8
10959 31
10962 21
10983 16
10984 37
10995 69
10999 8
11018 21
11019 36
11024 8
11025 7
11032 30
11041 6
11043 12
11049 8
11065 30
11074 40
11086 10
11090 48
11091 30
11110 24
11111 139
11112 23
11127 19
11129 23
11136 36
11137 39
11139 37
11173 28
11176 9
11179 7
11186 9
11188 9
11191 9
11199 20
11203 67
11205 31
11207 6
11209 14
11213 6
11225 15
11231 15
11246 105
11252 11
11271 17
11275 6
11280 15
11284 24
11287 8
11292 48
11293 92
11295 41
11329 8
11330 6
11331 6
11336 134
11337 8
11339 63
11341 52
11349 70
11350 9
11351 18
11352 31
11354 12
11365 41
11367 14
11371 7
11373 24
11376 45
11378 19
11379 19
11380 6
11381 65
11383 26
11384 65
11387 10
11388 80
11390 24
11391 24
11397 39
11399 50
11401 9
11408 16
11409 34
11412 15
11413 12
11421 6
11422 7
11439 10
11446 13
11450 6
11470 6
11472 9
11486 97
11489 96
11501 9
11502 13
11504 76
11507 56
11508 61
11509 12
11523 27
11526 9
11529 36
11532 13
11547 35
11552 13
11553 8
11555 7
11573 12
11593 26
11618 15
11626 25
11628 8
11635 6
11639 9
11642 25
11644 6
11648 7
11658 72
11663 6
11672 22
11673 11
11674 12
11675 10
11681 28
11683 10
11692 51
11695 12
11701 19
11703 13
11709 10
11718 49
11725 52
11731 18
11733 55
11736 11
11739 43
11743 7
11749 13
11750 7
11756 9
11757 8
11761 6
11762 88
11764 54
11765 14
11769 13
11770 6
11774 8
11785 36
11787 6
11788 6
11790 14
11801 55
11806 6
11812 33
11824 8
11828 9
11830 6
11833 26
11839 69
11841 29
11850 50
11859 57
11863 8
11864 6
11881 9
11894 15
11903 15
11907 6
11918 30
11933 17
11945 21
11951 6
11957 38
11958 10
11969 7
11976 13
11990 21
11996 17
11997 6
12012 12
12026 11
12036 6
12044 20
12078 25
12084 7
12092 33
12100 6
12102 43
12130 21
12131 7
12134 8
12140 7
12155 28
12160 10
12161 17
12162 20
12172 15
12186 14
12196 6
12197 64
12198 9
12206 13
12209 17
12212 75
12215 14
12220 33
12226 9
12244 6
12250 6
12260 71
12261 12
12274 38
12275 13
12292 6
12324 16
12325 11
12334 6
12337 8
12349 40
12354 13
12372 12
12378 12
12399 7
12402 9
12405 10
12410 12
12435 13
12436 24
12441 17
12445 10
12447 6
12448 29
12455 8
12484 13
12489 6
12491 6
12513 9
12514 17
12525 17
12526 18
12543 6
12551 8
12561 11
12569 48
12574 12
12581 10
12588 12
12592 15
12595 8
12603 7
12604 6
12605 6
12615 6
12621 17
12623 6
12624 67
12628 14
12629 14
12633 6
12638 7
12639 10
12641 35
12643 23
12645 34
12646 13
12648 15
12650 9
12653 16
12654 10
12667 8
12679 20
12684 6
12685 7
12693 20
12697 7
12698 8
12714 7
12717 36
12719 12
12722 6
12723 14
12725 6
12734 13
12735 17
12737 11
12738 11
12741 51
12755 53
12757 23
12760 7
12763 21
12765 7
12766 19
12767 8
12770 99
12771 22
12772 37
12773 9
12774 15
12775 10
12777 7
12784 53
12803 8
12815 12
12833 9
12835 9
12842 7
12854 20
12859 7
12860 6
12865 6
12871 16
12875 13
12876 6
12884 508
12902 52
12903 6
12909 9
12924 7
12936 21
12945 6
12946 25
12948 6
12951 6
12970 11
12973 18
12976 6
12979 7
12984 9
12988 7
13001 15
13003 13
13007 11
13010 7
13015 8
13018 8
13021 8
13028 6
13034 12
13035 6
13069 6
13072 96
13075 12
13078 6
13079 37
13084 81
13095 12
13115 7
13116 22
13117 16
13121 9
13122 47
13125 12
13132 7
13139 13
13156 6
13162 9
13163 17
13165 6
13166 7
13192 16
13203 14
13236 8
13242 7
13254 16
13255 8
13257 6
13259 23
13283 9
13291 6
13296 13
13306 26
13310 25
13316 15
13338 7
13350 9
13381 15
13389 9
13392 75
13393 64
13394 19
13400 16
13402 8
13415 6
13417 6
13419 9
13420 24
13421 11
13429 11
13431 8
13435 31
13438 10
13439 27
13448 16
13449 17
13450 20
13455 18
13469 10
13470 32
13475 16
13479 21
13480 7
13491 8
13496 15
13498 13
13515 6
13519 22
13524 43
13526 12
13544 53
13546 45
13547 6
13566 10
13575 13
13580 7
13599 12
13600 12
13601 10
13607 10
13615 8
13616 10
13617 8
13618 7
13631 15
13632 9
13638 16
13647 33
13649 9
13656 55
13657 44
13670 8
13683 26
13692 26
13693 18
13719 22
13720 19
13723 28
13728 29
13729 25
13731 8
13733 8
13734 6
13735 109
13736 12
13737 69
13740 42
13749 7
13750 9
13751 29
13752 21
13765 18
13768 28
13769 7
13773 10
13780 10
13790 15
13791 27
13800 8
13810 10
13823 12
13824 7
13827 16
13834 6
13851 18
13854 10
13857 9
13860 6
13865 17
13873 40
13875 44
13876 28
13877 13
13879 15
13885 16
13894 18
13917 6
13918 36
13928 13
13929 14
13934 47
13937 107
13947 18
13948 8
13965 8
13987 6
14015 10
14022 40
14030 19
14038 13
14039 7
14058 7
14086 31
14092 6
14093 7
14099 10
14100 11
14122 20
14126 53
14127 15
14128 9
14133 8
14137 18
14138 59
14141 19
14145 14
14146 7
14159 8
14160 26
14161 13
14164 17
14194 8
14195 93
14197 14
14198 33
14200 40
14201 41
14202 59
14203 6
14205 33
14206 18
14207 8
14217 6
14229 48
14238 12
14243 7
14246 124
14248 13
14257 10
14258 7
14293 10
14296 41
14297 44
14299 7
14309 9
14311 14
14330 89
14331 16
14332 77
14342 7
14361 7
14363 12
14364 23
14374 13
14385 6
14419 10
14421 6
14451 62
14452 77
14457 17
14464 11
14507 17
14511 13
14513 21
14522 13
14557 21
14558 9
14567 10
14568 12
14574 7
14578 20
14587 19
14590 8
14597 11
14632 11
14637 9
14639 12
14640 13
14641 11
14650 8
14657 12
14658 19
14662 7
14664 14
14667 13
14671 12
14680 13
14697 9
14706 11
14722 6
14728 22
14762 8
14779 26
14794 7
14805 6
14807 13
14812 7
14814 11
14815 36
14821 8
14839 6
14878 8
14884 6
14886 15
14887 22
14888 12
14900 13
14901 10
14914 8
14925 16
14934 9
14938 7
14943 27
14944 24
14947 18
14958 8
14959 6
14974 8
14981 53
14982 24
15028 6
15065 6
15067 21
15069 63
15078 6
15079 48
15081 24
15082 61
15086 29
15087 6
15092 6
15107 13
15114 164
15115 58
15118 7
15120 9
15121 9
15125 7
15128 7
15133 7
15134 6
15139 15
15143 77
15152 23
15153 8
15155 7
15163 105
15165 61
15196 8
15199 178
15200 63
15210 29
15214 6
15216 7
15219 7
15221 37
15222 20
15223 6
15225 20
15226 15
15237 26
15238 22
15241 19
15244 11
15248 38
15249 25
15251 20
15253 20
15268 25
15277 6
15281 6
15298 8
15299 12
15302 43
15311 6
15313 6
15316 6
15321 6
15322 139
15331 11
15337 26
15338 20
15339 15
15345 10
15346 15
15354 6
15355 6
15356 39
15366 10
15367 7
15385 6
15387 6
15404 17
15405 9
15406 13
15418 18
15427 10
15428 13
15429 6
15459 6
15461 10
15465 6
15492 11
15495 25
15510 23
15511 54
15522 78
15530 25
15534 6
15537 14
15542 8
15549 21
15550 48
15552 51
15556 9
15559 53
15563 7
15567 16
15573 23
15578 7
15589 15
15597 22
15598 6
15601 20
15616 10
15623 32
15625 13
15630 7
15631 7
15640 8
15649 8
15655 95
15657 55
15659 9
15683 25
15691 6
15692 17
15699 15
15706 8
15711 11
15713 6
15734 6
15745 14
15751 21
15753 12
15758 12
15760 19
15769 13
15770 8
15771 22
15774 6
15783 10
15790 12
15792 6
15798 18
15800 10
15810 8
15818 13
15820 62
15828 8
15835 26
15857 9
15879 16
15883 9
15909 12
15919 6
15920 7
15927 10
15928 18
15939 7
15952 12
15983 7
15994 7
15997 24
16004 6
16012 6
16021 6
16037 7
16040 12
16062 8
16073 24
16074 9
16077 9
16080 8
16087 47
16091 21
16092 66
16093 6
16106 10
16107 10
16111 11
16112 25
16115 13
16124 7
16139 84
16141 8
16142 269
16144 14
16146 19
16150 23
16151 12
16153 10
16154 17
16186 18
16199 67
16204 6
16212 44
16213 54
16233 11
16234 37
16243 28
16244 12
16275 21
16276 119
16284 20
16287 13
16288 6
16304 254
16306 15
16311 7
16315 156
16318 21
16319 8
16323 20
16324 25
16325 34
16326 6
16335 41
16340 20
16346 120
16349 12
16353 6
16354 10
16355 33
16361 39
16364 22
16377 14
16382 10
16386 6
16389 13
16390 7
16397 10
16398 25
16400 7
16404 8
16412 64
16413 11
16415 6
16417 10
16418 11
16420 13
16421 8
16426 6
16432 12
16436 16
16440 15
16447 172
16450 76
16451 26
16452 56
16455 20
16456 282
16464 63
16470 24
16471 34
16475 13
16481 23
16488 9
16529 21
16537 9
16545 28
16558 7
16584 10
16593 13
16594 7
16595 11
16614 6
16636 7
16637 27
16643 23
16645 34
16648 8
16655 13
16657 36
16667 6
16669 23
16673 16
16674 11
16681 147
16682 18
16684 6
16713 64
16714 52
16715 24
16718 9
16721 136
16722 86
16734 11
16739 119
16743 14
16744 100
16745 15
16753 9
16761 16
16762 38
16763 24
16774 32
16782 6
16793 6
16798 16
16800 16
16802 8
16805 7
16807 7
16808 7
16809 44
16810 26
16824 20
16826 38
16827 29
16837 16
16845 190
16849 17
16853 33
16858 43
16859 19
16868 6
16877 7
16885 10
16886 20
16887 18
16888 12
16892 63
16895 22
16902 7
16903 6
16904 15
16909 12
16912 12
16914 15
16917 6
16922 21
16923 72
16936 15
16941 35
16947 10
16950 18
16956 16
16963 28
16964 33
16969 17
16973 104
16978 14
16982 7
16983 6
16986 13
16987 11
16991 12
16992 10
16993 7
16994 14
16995 7
17002 9
17006 17
17007 77
17008 12
17009 32
17016 22
17017 15
17021 23
17022 48
17024 9
17026 35
17027 25
17036 8
17039 10
17045 50
17047 12
17061 14
17065 12
17066 26
17067 7
17073 6
17079 8
17081 8
17090 6
17095 10
17099 48
17100 50
17102 7
17107 16
17108 7
17112 22
17128 6
17138 33
17146 31
17147 12
17148 12
17149 98
17165 6
17172 17
17175 6
17191 10
17198 7
17216 30
17217 33
17229 20
17230 7
17236 11
17237 41
17242 19
17248 65
17252 11
17253 18
17257 7
17276 10
17277 9
17295 10
17299 14
17301 7
17303 12
17307 50
17310 14
17319 12
17323 7
17326 22
17335 29
17347 18
17349 40
17359 10
17360 8
17361 9
17370 11
17372 9
17388 19
17399 12
17403 34
17404 113
17405 29
17407 6
17426 24
17429 12
17430 6
17431 20
17433 67
17434 69
17435 81
17437 13
17439 13
17443 10
17454 25
17455 7
17460 21
17463 6
17464 17
17472 9
17476 21
17483 10
17489 6
17500 31
17509 13
17510 10
17513 243
17522 6
17527 10
17528 8
17533 9
17539 7
17555 12
17556 30
17559 9
17564 6
17568 17
17571 6
17574 6
17578 8
17587 9
17588 13
17590 9
17591 11
17593 11
17594 65
17596 31
17606 12
17607 9
17608 37
17611 21
17616 16
17617 26
17618 17
17619 6
17622 19
17630 25
17631 35
17636 6
17641 6
17643 12
17651 7
17661 7
17667 78
17676 6
17679 26
17680 12
17683 44
17684 6
17685 10
17690 54
17691 11
17700 12
17705 6
17707 12
17709 10
17712 6
17714 19
17715 31
17734 23
17736 10
17746 6
17751 6
17753 8
17757 35
17761 10
17762 7
17770 6
17779 7
17780 15
17792 6
17798 17
17807 14
17809 6
17814 101
17817 12
17829 6
17834 7
17838 26
17860 6
17873 11
17882 10
17885 23
17909 14
17913 10
17915 7
17916 17
17939 19
17940 7
17955 87
17956 26
17959 65
17960 11
17962 27
17963 16
17971 11
17972 36
17975 14
17977 25
18013 26
18017 6
18046 7
18057 47
18058 17
18075 13
18076 19
18079 7
18084 10
18086 72
18088 6
18090 6
18102 8
18111 11
18120 7
18127 6
18129 8
18136 13
18138 9
18148 13
18168 6
18171 13
18185 14
18200 16
18204 13
18205 16
18216 8
18218 9
18231 36
18232 6
18233 28
18237 14
18240 10
18243 9
18263 129
18265 12
18266 27
18267 57
18272 94
18278 17
18289 9
18290 10
18291 28
18293 75
18294 6
18296 54
18297 8
18301 11
18303 37
18304 32
18305 61
18306 7
18319 9
18326 14
18350 11
18354 14
18369 10
18374 6
18375 8
18379 10
18380 7
18402 13
18404 6
18408 20
18417 141
18434 9
18437 6
18445 26
18446 10
18452 480
18456 8
18461 11
18463 18
18467 11
18468 16
18469 7
18476 54
18482 18
18511 28
18526 15
18539 16
18565 106
18566 6
18569 9
18593 26
18619 13
18621 6
18623 11
18647 9
18667 7
18671 12
18673 20
18676 14
18677 14
18680 6
18689 8
18716 13
18727 9
18741 18
18758 7
18761 9
18762 10
18763 7
18771 35
18778 8
18788 97
18789 40
18790 40
18791 16
18793 56
18794 10
18796 10
18798 11
18802 6
18811 16
18815 7
18821 6
18822 24
18829 7
18830 8
18835 40
18837 8
18853 25
18881 35
18897 27
18907 8
18926 10
18927 7
18928 32
18931 6
18934 11
18962 10
18981 10
18996 15
18997 172
18998 21
18999 66
19000 26
19001 7
19009 8
19047 12
19068 15
19070 9
19083 8
19084 26
19094 35
19103 29
19122 39
19140 6
19185 33
19221 7
19259 13
19266 14
19269 58
19270 94
19272 6
19273 6
19286 7
19296 20
19297 151
19299 75
19301 29
19319 90
19320 9
19331 7
19334 19
19341 6
19344 6
19345 22
19348 15
19363 9
19364 11
19383 26
19384 25
19387 8
19388 120
19395 7
19396 26
19397 6
19398 45
19399 30
19403 6
19406 9
19412 10
19421 9
19448 6
19453 9
19466 73
19468 7
19474 10
19476 20
19478 15
19479 10
19496 14
19497 6
19507 6
19517 9
19522 6
19527 8
19562 14
19593 7
19604 35
19642 6
19646 6
19653 68
19654 79
19656 100
19658 6
19660 84
19661 13
19667 52
19669 16
19670 20
19672 12
19673 31
19676 15
19679 9
19681 9
19704 10
19712 6
19717 9
19725 12
19727 7
19731 45
19740 6
19749 7
19757 30
19758 7
19768 9
19773 19
19774 20
19778 7
19780 8
19787 6
19799 175
19807 11
19822 13
19824 17
19836 6
19839 15
19858 30
19859 28
19860 10
19868 6
19878 31
19880 27
19890 12
19892 8
19896 8
19926 11
19927 52
19928 6
19931 7
19932 10
19935 100
19936 96
19941 26
19952 8
19956 10
19961 30
19965 6
19966 11
19967 7
19968 13
19972 41
19980 7
19988 7
19990 9
20004 13
20006 16
20011 9
20012 8
20014 10
20017 27
20021 7
20022 25
20023 14
20027 10
20028 11
20036 20
20037 7
20038 11
20039 24
20044 10
20050 11
20055 6
20068 31
20073 13
20080 26
20081 7
20082 8
20087 7
20104 18
20105 8
20111 27
20112 9
20116 22
20117 15
20118 7
20126 6
20131 11
20132 6
20133 6
20141 8
20142 8
20152 6
20161 29
20164 6
20172 10
20191 7
20192 8
20193 19
20194 12
20195 12
20202 20
20203 9
20204 10
20206 43
20207 50
20213 6
20220 8
20221 8
20226 15
20230 28
20244 22
20255 6
20256 14
20276 26
20292 6
20316 7
20319 7
20323 14
20334 11
20347 9
20348 9
20361 14
20363 6
20374 7
20376 10
20386 6
20397 10
20402 6
20407 26
20411 19
20415 35
20418 16
20422 9
20424 10
20428 6
20430 6
20431 10
20432 23
20433 10
20436 12
20439 9
20442 9
20444 11
20447 6
20458 10
20461 26
20465 33
20466 14
20467 29
20473 8
20479 41
20480 50
20481 33
20482 6
20486 11
20498 40
20499 11
20500 27
20503 7
20507 13
20508 240
20512 37
20514 60
20517 64
20518 19
20527 6
20546 6
20547 11
20557 12
20561 15
20565 11
20577 10
20583 18
20589 16
20591 6
20596 7
20603 32
20608 6
20609 8
20616 13
20617 13
20623 8
20635 10
20638 13
20647 17
20650 9
20652 13
20657 6
20660 19
20661 18
20667 74
20668 8
20669 215
20671 74
20675 146
20676 43
20677 10
20678 18
20679 97
20680 46
20682 12
20683 20
20684 9
20685 22
20697 7
20698 7
20706 8
20723 11
20740 47
20750 8
20753 8
20775 9
20795 12
20800 10
20803 6
20804 21
20805 35
20806 7
20811 15
20813 36
20814 29
20816 25
20819 11
20821 22
20823 77
20826 13
20827 14
20830 108
20833 9
20839 90
20843 19
20846 25
20848 16
20855 6
20856 7
20866 7
20873 212
20874 12
20875 39
20876 123
20880 6
20885 17
20890 27
20905 10
20918 7
20922 9
20925 6
20935 7
20943 53
20944 74
20946 48
20948 7
20949 33
20952 8
20955 6
20960 9
20996 21
20997 8
21018 59
21047 9
21048 7
21053 22
21054 8
21061 11
21066 6
21077 18
21080 160
21092 21
21109 14
21116 7
21118 22
21122 6
21127 28
21137 10
21140 6
21157 51
21160 22
21185 17
21186 19
21187 27
21188 19
21189 27
21202 13
21207 15
21208 10
21232 17
21242 7
21270 7
21282 14
21322 6
21324 6
21333 10
21334 6
21342 24
21349 73
21350 16
21377 6
21389 49
21392 7
21393 22
21397 12
21407 26
21408 37
21409 7
21412 6
21413 11
21416 10
21418 9
21419 21
21432 9
21433 6
21438 11
21453 14
21459 26
21460 6
21462 7
21472 6
21478 19
21482 12
21483 26
21486 9
21489 18
21494 16
21501 42
21508 12
21509 11
21516 22
21522 28
21524 21
21525 14
21538 12
21542 44
21543 28
21547 28
21548 19
21552 28
21555 17
21556 8
21557 22
21565 6
21567 15
21568 6
21582 17
21585 11
21592 7
21594 61
21595 22
21620 6
21625 39
21648 12
21649 6
21670 16
21674 11
21681 19
21690 9
21691 9
21707 17
21730 6
21734 9
21743 8
21748 190
21749 130
21750 7
21754 11
21757 18
21758 49
21761 13
21767 31
21801 7
21806 12
21821 24
21822 6
21824 8
21826 6
21830 6
21852 8
21876 18
21879 108
21883 18
21903 30
21905 6
21918 35
21933 6
21934 6
21935 15
21936 24
21939 22
21940 11
21941 28
21943 12
21959 7
21961 6
21962 14
21968 13
21969 7
21983 9
22003 10
22018 12
22038 7
22039 32
22047 9
22068 15
22069 6
22076 37
22094 9
22103 13
22115 7
22131 12
22134 12
22152 8
22157 13
22161 12
22169 233
22170 23
22171 26
22179 12
22181 20
22183 14
22186 15
22200 27
22211 7
22224 15
22225 38
22238 21
22240 11
22263 14
22275 7
22282 21
22284 31
22290 6
22291 78
22295 9
22300 45
22301 25
22302 50
22304 55
22306 60
22307 11
22322 14
22338 18
22341 37
22355 8
22359 74
22370 7
22373 8
22376 8
22379 56
22383 7
22395 16
22403 11
22420 29
22424 9
22435 10
22440 15
22445 7
22447 7
22450 8
22457 6
22462 6
22463 87
22466 6
22472 6
22475 8
22484 10
22495 10
22515 12
22516 76
22518 153
22519 31
22521 23
22522 34
22523 18
22532 28
22537 26
22552 8
22578 10
22579 15
22587 53
22615 16
22616 15
22630 78
22631 50
22646 7
22662 30
22669 23
22672 15
22673 57
22681 8
22701 10
22702 8
22710 28
22719 25
22720 11
22724 25
22728 15
22730 51
22740 19
22743 6
22744 19
22756 6
22763 6
22766 6
22767 12
22768 11
22790 6
22795 7
22806 8
22809 10
22816 7
22822 7
22835 12
22857 14
22861 9
22868 7
22873 54
22875 10
22882 12
22883 8
22908 11
22912 8
22913 7
22915 9
22916 20
22920 10
22930 27
22942 15
22943 6
22952 7
22955 25
22959 26
22960 16
22979 16
22980 20
23011 7
23015 9
23017 10
23019 18
23023 21
23024 14
23031 25
23040 30
23049 36
23056 6
23079 11
23089 21
23103 6
23105 18
23108 8
23125 18
23147 14
23149 55
23150 12
23169 27
23186 9
23201 14
23219 51
23225 14
23235 13
23241 31
23242 7
23243 41
23261 22
23262 75
23270 8
23281 6
23289 22
23305 7
23328 10
23330 8
23332 6
23334 10
23335 9
23346 13
23347 6
23350 19
23355 6
23356 8
23362 7
23364 52
23370 8
23374 20
23379 6
23384 13
23385 10
23393 15
23404 23
23405 18
23408 10
23412 6
23413 8
23437 31
23447 14
23455 11
23460 8
23478 7
23479 6
23494 11
23501 16
23502 20
23505 15
23520 6
23523 24
23539 134
23542 9
23558 11
23559 6
23560 15
23564 6
23569 12
23571 7
23594 6
23607 12
23622 20
23624 24
23635 7
23637 10
23641 13
23642 6
23650 7
23651 18
23656 22
23660 8
23661 33
23681 118
23682 23
23684 10
23685 11
23686 24
23695 30
23697 8
23710 10
23713 51
23715 29
23716 9
23730 14
23734 68
23736 8
23748 57
23749 21
23768 9
23786 138
23807 10
23814 39
23815 30
23817 19
23819 48
23820 15
23825 11
23829 18
23830 50
23832 73
23834 18
23837 6
23842 13
23847 7
23859 6
23863 14
23865 21
23867 6
23881 59
23883 13
23886 6
23889 9
23890 6
23891 8
23895 38
23896 7
23907 11
23908 8
23909 6
23911 8
23915 16
23922 21
23936 9
23938 7
23942 46
23954 11
23960 11
23962 7
23970 7
23976 7
24006 11
24017 8
24019 11
24021 6
24036 12
24042 13
24052 16
24060 6
24062 15
24066 21
24067 41
24072 16
24073 40
24076 14
24093 16
24101 7
24116 7
24120 6
24127 16
24134 11
24138 10
24147 8
24153 21
24158 33
24161 13
24168 10
24169 6
24172 26
24174 18
24176 14
24178 12
24180 23
24187 9
24190 8
24199 8
24207 6
24208 13
24223 20
24224 9
24229 7
24260 6
24266 8
24280 19
24282 9
24285 14
24288 9
24291 14
24295 15
24298 17
24302 9
24306 9
24308 26
24321 76
24329 14
24331 18
24333 6
24335 9
24337 11
24354 9
24355 65
24357 6
24359 7
24366 12
24367 13
24378 10
24380 44
24381 53
24385 84
24386 7
24387 39
24395 9
24397 12
24398 9
24406 9
24416 70
24417 29
24420 11
24424 9
24427 8
24433 8
24449 6
24452 6
24457 8
24459 6
24460 7
24478 11
24495 14
24500 6
24506 13
24507 109
24509 11
24511 22
24516 25
24526 19
24536 7
24540 14
24551 14
24555 23
24556 13
24561 7
24562 7
24563 6
24568 7
24569 58
24572 107
24573 9
24574 42
24575 40
24579 15
24591 15
24596 6
24600 23
24610 121
24611 18
24623 30
24626 10
24629 10
24650 97
24651 11
24654 22
24659 25
24660 6
24666 18
24668 67
24669 25
24675 8
24682 13
24692 80
24693 15
24698 9
24714 7
24723 24
24727 9
24730 112
24735 60
24736 40
24739 7
24754 46
24755 41
24765 24
24767 24
24768 28
24770 10
24794 29
24798 8
24805 24
24807 17
24811 32
24813 41
24824 16
24825 24
24836 21
24842 37
24862 64
24863 31
24865 7
24866 7
24881 8
24886 9
24887 14
24889 10
24904 7
24912 20
24917 12
24923 8
24929 10
24949 63
24951 9
24956 38
24961 79
24962 42
24967 23
24979 11
24983 9
24991 6
24994 35
24998 9
25005 48
25006 12
25011 13
25013 13
25022 6
25031 6
25050 6
25058 23
25078 58
25080 6
25084 43
25091 10
25103 6
25108 9
25109 6
25116 9
25120 17
25127 6
25128 27
25130 24
25132 15
25135 8
25162 39
25163 98
25164 14
25166 17
25177 9
25182 6
25214 22
25223 60
25225 24
25227 17
25228 8
25235 6
25236 6
25251 7
25255 21
25257 30
25258 11
25265 7
25270 30
25275 12
25295 10
25298 22
25299 25
25303 13
25317 12
25326 17
25329 6
25336 7
25342 9
25344 28
25346 27
25357 10
25358 12
25364 27
25365 11
25366 7
25385 7
25394 6
25397 6
25404 17
25408 40
25418 17
25425 8
25442 12
25444 11
25445 10
25451 25
25458 7
25461 18
25470 27
25471 7
25476 7
25477 6
25484 12
25492 13
25496 18
25500 7
25501 7
25502 9
25519 81
25521 12
25528 6
25534 12
25538 105
25541 6
25542 18
25543 16
25548 23
25554 34
25562 16
25572 143
25576 9
25578 191
25579 37
25584 20
25585 149
25594 44
25596 36
25598 27
25600 9
25601 13
25603 19
25608 12
25610 20
25611 11
25612 57
25613 6
25615 26
25619 55
25621 9
25625 25
25626 10
25628 8
25636 14
25640 38
25642 6
25648 7
25649 21
25655 18
25663 17
25670 23
25675 17
25681 7
25684 19
25686 12
25687 14
25692 41
25697 11
25701 44
25703 7
25708 62
25709 8
25721 16
25728 9
25731 9
25738 14
25746 48
25751 9
25752 6
25757 8
25759 7
25761 8
25764 6
25766 13
25783 10
25784 10
25794 37
25800 157
25804 13
25805 11
25812 13
25813 56
25821 8
25827 29
25828 28
25834 15
25835 45
25836 39
25838 34
25852 112
25856 15
25875 15
25876 7
25877 8
25884 10
25886 15
25899 118
25900 7
25910 11
25922 28
25924 14
25930 6
25932 38
25939 9
25945 6
25956 10
25957 10
25959 30
25960 9
25961 31
25963 7
25967 6
25987 10
25995 25
25997 31
26001 16
26007 14
26010 11
26014 7
26017 7
26023 22
26029 7
26039 21
26052 16
26055 8
26062 8
26065 8
26069 6
26074 12
26076 11
26089 9
26108 6
26116 21
26122 14
26123 6
26124 7
26126 38
26128 16
26129 149
26130 8
26136 7
26139 9
26150 17
26152 7
26156 76
26158 25
26161 38
26164 63
26167 10
26168 82
26175 23
26182 11
26188 7
26193 8
26195 49
26206 13
26216 35
26220 54
26228 13
26234 6
26245 11
26253 7
26254 6
26268 14
26275 9
26276 15
26277 10
26288 48
26290 80
26295 12
26297 13
26301 26
26304 19
26307 6
26310 40
26314 6
26316 21
26317 12
26319 6
26331 41
26332 23
26333 10
26341 14
26342 16
26345 6
26350 11
26353 28
26358 42
26363 8
26369 24
26372 8
26375 8
26381 106
26383 6
26400 14
26404 43
26407 6
26430 29
26434 8
26435 12
26436 6
26444 14
26452 68
26454 87
26458 20
26467 7
26474 10
26525 8
26535 15
26548 8
26550 6
26563 9
26577 13
26578 21
26584 7
26585 15
26619 6
26639 6
26671 11
26683 8
26686 9
26687 9
26702 21
26704 7
26727 9
26731 18
26732 6
26751 18
26791 8
26821 26
26822 91
26849 46
26850 6
26852 8
26854 12
26855 12
26864 11
26881 16
26883 16
26884 46
26885 36
26886 10
26887 59
26889 6
26891 38
26903 6
26905 6
26915 14
26916 25
26938 9
26944 23
26946 7
26947 12
26957 7
26959 16
26975 22
27002 6
27005 8
27006 80
27008 65
27009 49
27014 10
27018 10
27020 12
27042 6
27043 42
27045 11
27046 14
27049 15
27065 18
27066 28
27073 12
27074 13
27105 11
27108 7
27114 10
27120 21
27124 8
27125 17
27132 7
27133 30
27138 6
27149 23
27150 17
27151 15
27152 39
27155 6
27157 15
27160 23
27163 43
27167 37
27168 264
27172 8
27173 13
27174 16
27175 39
27188 20
27199 20
27215 6
27217 15
27227 49
27239 31
27242 11
27257 27
27259 7
27275 6
27276 8
27301 11
27304 6
27310 8
27316 16
27317 8
27328 48
27342 12
27343 7
27348 12
27358 10
27368 7
27376 8
27381 10
27385 13
27395 8
27406 20
27410 13
27411 19
27417 10
27423 19
27424 20
27427 21
27429 7
27430 11
27438 22
27447 11
27461 10
27464 69
27465 418
27467 31
27469 23
27471 28
27472 8
27475 8
27476 14
27477 10
27480 54
27481 17
27485 13
27488 12
27491 16
27492 20
27498 17
27501 10
27511 6
27512 29
27513 11
27536 39
27537 12
27544 31
27556 27
27557 46
27558 13
27564 6
27565 10
27567 8
27571 7
27577 48
27588 25
27595 9
27597 6
27627 11
27635 16
27636 9
27638 22
27639 6
27644 12
27653 6
27654 13
27656 14
27660 10
27662 22
27663 13
27666 7
27674 6
27677 41
27680 19
27681 14
27685 17
27688 11
27693 14
27696 7
27698 6
27710 9
27715 12
27734 15
27737 12
27738 6
27739 8
27745 12
27748 57
27752 7
27756 71
27758 9
27759 13
27762 7
27783 7
27786 8
27789 34
27792 14
27795 6
27810 11
27826 6
27835 8
27843 7
27850 18
27859 15
27860 7
27861 6
27867 7
27869 19
27870 19
27871 6
27873 11
27875 10
27877 14
27881 6
27895 7
27898 6
27899 9
27900 18
27901 6
27912 9
27929 11
27945 22
27948 12
27956 13
27958 7
27965 41
27966 14
27968 13
27969 20
27979 12
27991 7
27998 6
28000 7
28007 7
28027 6
28031 22
28032 12
28049 7
28050 19
28055 7
28063 16
28067 12
28069 19
28074 10
28075 9
28078 12
28079 8
28085 24
28088 19
28093 46
28102 7
28105 18
28109 10
28114 6
28132 7
28140 12
28145 15
28161 13
28162 11
28166 7
28178 9
28182 46
28188 7
28190 7
28192 6
28198 14
28210 34
28220 13
28221 6
28227 60
28238 40
28241 29
28249 39
28252 6
28253 6
28256 10
28258 7
28260 6
28274 45
28275 11
28278 10
28279 9
28280 21
28283 46
28292 10
28293 25
28295 28
28298 6
28302 9
28305 8
28306 11
28307 6
28308 32
28311 27
28323 28
28324 6
28333 9
28339 13
28345 8
28354 54
28356 46
28358 11
28359 14
28375 16
28385 11
28386 9
28392 42
28418 21
28423 60
28429 27
28434 13
28439 8
28458 6
28487 15
28492 7
28495 10
28497 14
28500 8
28514 27
28522 78
28525 11
28526 16
28535 6
28554 11
28604 19
28605 9
28624 12
28629 13
28635 14
28637 33
28644 8
28646 10
28648 76
28649 52
28655 14
28661 10
28664 12
28666 6
28667 8
28668 17
28669 7
28672 6
28681 8
28688 6
28713 10
28755 12
28760 11
28763 24
28768 8
28769 8
28771 9
28792 12
28795 6
28803 10
28807 8
28817 15
28822 26
28823 25
28825 21
28828 22
28831 13
28884 11
28889 7
28890 9
28891 42
28943 15
28944 29
28945 12
28984 19
29007 12
29028 9
29058 13
29095 17
29096 10
29103 6
29106 14
29110 7
29114 25
29117 14
29124 50
29135 7
29137 7
29140 18
29156 8
29233 10
29252 8
29268 10
29308 38
29309 8
29310 9
29318 11
29328 19
29338 51
29343 8
29359 12
29368 23
29373 18
29375 6
29383 11
29386 14
29387 7
29388 16
29405 7
29424 70
29425 6
29429 9
29437 7
29443 11
29465 7
29473 30
29474 20
29477 11
29482 17
29484 13
29486 10
29488 13
29497 25
29499 7
29505 26
29507 18
29509 7
29517 42
29518 25
29522 21
29530 16
29540 18
29551 6
29559 8
29562 12
29575 36
29576 21
29577 11
29582 8
29583 18
29591 17
29595 48
29596 8
29602 10
29614 8
29625 28
29641 18
29657 23
29658 16
29659 14
29660 15
29667 81
29668 35
29670 6
29682 19
29690 36
29691 39
29692 11
29702 10
29706 116
29710 10
29717 14
29726 8
29732 16
29745 7
29747 29
29754 20
29757 21
29762 82
29771 34
29772 29
29773 18
29777 14
29781 14
29782 11
29787 6
29788 10
29789 56
29792 24
29794 9
29796 21
29797 6
29800 106
29806 78
29807 10
29832 7
29833 10
29839 37
29852 28
29869 7
29876 20
29879 10
29880 48
29882 25
29886 17
29887 6
29897 7
29906 59
29908 23
29909 23
29911 6
29914 14
29916 23
29924 13
29935 7
29970 7
29975 24
29978 23
29979 10
29984 11
29998 11
29999 7
30001 12
30005 50
30007 6
30010 21
30018 6
30027 20
30028 6
30031 6
30035 13
30036 21
30039 6
30056 17
30060 40
30063 12
30064 32
30074 112
30083 12
30084 29
30085 8
30091 51
30094 6
30095 7
30099 19
30100 11
30102 14
30103 6
30104 42
30106 21
30109 128
30114 9
30125 17
30127 13
30138 6
30139 24
30143 68
30147 51
30152 10
30156 12
30167 8
30169 12
30170 7
30173 26
30176 14
30188 7
30192 8
30208 12
30209 24
30210 24
30212 10
30219 14
30235 15
30237 10
30239 7
30240 22
30241 28
30243 6
30256 15
30275 20
30284 7
30322 16
30332 20
30340 94
30342 6
30345 9
30346 24
30348 10
30359 20
30365 15
30369 113
30372 13
30374 6
30377 15
30379 8
30397 7
30422 9
30432 239
30437 43
30439 11
30440 15
30446 7
30451 6
30456 26
30457 11
30459 12
30466 12
30468 13
30470 394
30471 51
30474 18
30475 48
30481 6
30483 62
30487 7
30510 9
30518 20
30549 12
30568 6
30593 13
30603 12
30624 9
30636 8
30641 16
30659 11
30662 30
30681 13
30686 14
30689 16
30690 6
30713 28
30714 12
30728 8
30731 15
30734 6
30738 8
30742 9
30749 17
30756 9
30757 7
30758 40
30759 18
30760 6
30762 19
